{
  "project_info": {
    "project_number": "671193778820",
    "firebase_url": "https://tensile-will-132907.firebaseio.com",
    "project_id": "tensile-will-132907",
    "storage_bucket": "tensile-will-132907.appspot.com"
  },
  "client": [
    {
      "client_info": {
        "mobilesdk_app_id": "1:671193778820:android:50f19a02982c75b7",
        "android_client_info": {
          "package_name": "id.co.firzil.wisatakota"
        }
      },
      "oauth_client": [
        {
          "client_id": "671193778820-3vit823ispg7lbdv87t81g522egfmi98.apps.googleusercontent.com",
          "client_type": 3
        }
      ],
      "api_key": [
        {
          "current_key": "AIzaSyAEoEp9nJNFiun1w2d1OB4girC4ZpoNqgU"
        }
      ],
      "services": {
        "analytics_service": {
          "status": 1
        },
        "appinvite_service": {
          "status": 1,
          "other_platform_oauth_client": []
        },
        "ads_service": {
          "status": 2
        }
      }
    }
  ],
  "configuration_version": "1"
}